
{
  "items": [{
    "id": 1,
    "img": "http://placekitten.com/g/200/200",
    "name": "Apple",
    "price": "1.99",
    "stars": "&#9733;&#9733;&#9733;&#9733;&#9733;",
    "attribution": "visualhunt",
    "url": "#",
    "color": "green"
  }, {
    "id": 2,
    "img": "http://placekitten.com/g/200/200",
    "name": "Orange",
    "attribution": "visualhunt",
    "price": "0.99",
    "stars": "&#9733;&#9733;&#9733;&#9733;&#9734;",
    "url": "#",
    "color": "orange"
  }, {
    "id": 3,
    "img": "http://placekitten.com/g/200/200",
    "name": "Pear",
    "attribution": "visualhunt",
    "price": "1.50",
    "stars": "&#9733;&#9733;&#9733;&#9734;&#9734;",
    "url": "#",
    "color": "green"
  }, {
    "id": 4,
    "img": "http://placekitten.com/g/200/200",
    "name": "Banana",
    "attribution": "pixabay",
    "price": "1.50",
    "stars": "&#9733;&#9733;&#9733;&#9733;&#9733;",
    "url": "#",
    "color": "yellow"
  }, {
    "id": 5,
    "img": "http://placekitten.com/g/200/200",
    "name": "Watermelon",
    "attribution": "pixabay",
    "price": "4.50",
    "stars": "&#9733;&#9733;&#9733;&#9733;&#9733;",
    "url": "#",
    "color": "red"
  }, {
    "id": 6,
    "img": "http://placekitten.com/g/200/200",
    "name": "Melon",
    "attribution": "pixabay",
    "price": "3.50",
    "stars": "&#9733;&#9733;&#9733;&#9733;&#9733;",
    "url": "#",
    "color": "yellow"
  }]
}
