{
  "items": [
    {
      "values": [
        {
          "value": "#2D68C4"
        },
        {
          "value": "#915A01"
        },
        {
          "value": "#0029F5"
        },
        {
          "value": "#367D23"
        },
        {
          "value": "#F5C4CB"
        },
        {
          "value": "#FFFC54"
        },
        {
          "value": "#3DE679"
        },
        {
          "value": "#2485F2"
        },
        {
          "value": "#EF96BF"
        },
        {
          "value": "#EBB8D6"
        },
        {
          "value": "#EEB5A7"
        },
        {
          "value": "#2D2926"
        },
        {
          "value": "#B9A8EA"
        },
        {
          "value": "#B9EAF3"
        },
        {
          "value": "#C6C6C6"
        },
        {
          "value": "#CD797A"
        },
        {
          "value": "#5BA0C5"
        },
        {
          "value": "#9177CC"
        },
        {
          "value": "#BA0C2F"
        },
        {
          "value": "#2E3398"
        },
        {
          "value": "#FAAACA"
        },
        {
          "value": "#EDE325"
        },
        {
          "value": "#474747"
        },
        {
          "value": "#FF8C17"
        },
        {
          "value": "#99D5DD"
        },
        {
          "value": "#BAEDFF"
        },
        {
          "value": "#E6E200"
        },
        {
          "value": "#FFC0CB"
        },
        {
          "value": "#B99B38"
        },
        {
          "value": "#2E004F"
        },
        {
          "value": "#F05B6E"
        },
        {
          "value": "#01B9DF"
        },
        {
          "value": "#960090"
        },
        {
          "value": "#73CFFF"
        },
        {
          "value": "#001A75"
        },
        {
          "value": "#F4519C"
        },
        {
          "value": "#F9779E"
        },
        {
          "value": "#000000"
        },
        {
          "value": "#FF0000"
        },
        {
          "value": "#800080"
        },
        {
          "value": "#F82F75"
        },
        {
          "value": "#662D91"
        },
        {
          "value": "#008000"
        },
        {
          "value": "#FF6012"
        },
        {
          "value": "#C73864"
        },
        {
          "value": "#CE62CE"
        },
        {
          "value": "#D30E2C"
        },
        {
          "value": "#BBBFC8"
        },
        {
          "value": "#F05337"
        },
        {
          "value": "#99A3FF"
        },
        {
          "value": "#704214"
        },
        {
          "value": "#0600FF"
        },
        {
          "value": "#F5F281"
        },
        {
          "value": "#D183B7"
        },
        {
          "value": "#FFFF00"
        },
        {
          "value": "#FFDDF2"
        },
        {
          "value": "#EA75A4"
        },
        {
          "value": "#361500"
        },
        {
          "value": "#83C98D"
        },
        {
          "value": "#BEA139"
        },
        {
          "value": "#F2A73D"
        },
        {
          "value": "#0141BF"
        },
        {
          "value": "#FF00FF"
        },
        {
          "value": "#FF38FF"
        },
        {
          "value": "#FFFFFF"
        },
        {
          "value": "#BAFFC4"
        },
        {
          "value": "#FFA500"
        },
        {
          "value": "#0088D6"
        },
        {
          "value": "#0040FF"
        },
        {
          "value": "#D1B5AA"
        },
        {
          "value": "#B9F3E9"
        },
        {
          "value": "#FF9982"
        },
        {
          "value": "#94FF33"
        },
        {
          "value": "#B1B3B6"
        },
        {
          "value": "#26B6B2"
        },
        {
          "value": "#083FE4"
        },
        {
          "value": "#21FF9E"
        },
        {
          "value": "#8A47FF"
        },
        {
          "value": "#AF638E"
        },
        {
          "value": "#23968D"
        },
        {
          "value": "#8BCEAB"
        },
        {
          "value": "#00C2B1"
        },
        {
          "value": "#009EDB"
        },
        {
          "value": "#FF6900"
        }
      ]
    }
  ]
}
